{
  "type": "mdx",
  "permalink": "/Snippets/intro",
  "source": "@site/src/pages/Snippets/intro.md",
  "title": "Tutorial Intro",
  "description": "Let's discover Docusaurus in less than 5 minutes.",
  "frontMatter": {
    "sidebar_position": 1
  }
}